{
  "type": "service_account",
  "project_id": "august-cascade-301522",
  "private_key_id": "7832a0786d011171823b3f87e078fd4c39dd8275",
  "private_key": "-----BEGIN PRIVATE KEY-----\nMIIEvQIBADANBgkqhkiG9w0BAQEFAASCBKcwggSjAgEAAoIBAQCrS/JIWHGjJr3c\n0fq/pNdlLUT7MCunBxlPpm0bhn2AsEwEIupmfM1ccMIb0eoCzqsHg5huiIFKeB7g\n8XAWm2mrbnNGgVsRw6PZfV0wnDRt6f7s+VDU7/EwAbhkWqmGywFB2x/HcHH0IMoq\nAfqgnsss+EVtdnx/BYlM6vRH8cnSnxcKay7t5aKVd1goluOHcCw08KMZ0YWB8hfr\nyfcEI43551HrKnLFg2I41Debsx/3pJnG/zhS1nqK2VbDF5YOPoMXnQNZ56oW0OqJ\nJlFXMO3Dr53VFk4s7E10BXq39r6CAS5+Fq0p8EaoBbwgrRkmIYd7VydKSKQTepVv\ndDCBoUORAgMBAAECggEAECAep0vYKsU3Y2XLBqaEdmxcDY971IX5DoP6yngPMYGn\nLk6BJXPDO1wMEeVhc7Ez7YmoXGNyVGnZclCYPjCUMoS7ylvcEGCL+KnyD2TtFJnO\nG03fG6SY3m2TB7N3OQ68SBBSPgqqV5KMpYa5Ksy4ELwwgP0B/E0vnzORGoK6/p4+\n4D7kHsPPD0lbOEk3RtislJz09shdfoauusIyDLrRtdzyz5/YlAuCXgoboxsYR283\nLR93xWLh+HPat4X8gLq1PuS+l9WjScjeucLGqYV5gGheX1yCMXmzV8ctZwm38neg\nu/gt/nGGH2TWriwKRRg1D8pwehPW04jlu2godSwrYQKBgQDfrrRpl3tQjAXYNNy/\nfZ4ZQRbCFl/1IWG1EVawGw/kD0CW1dma8NwlBv6D/kAXQiKU/P1U2Xuzst0eE3/u\nRZ4lPIOA9vYgDdqFdWahE9+PNl2UPI+9jXM1ZTum0nPEN7gPumqX0OOmvLhPUyQQ\nnqDhdJgZ2SJBG6twxaXvZPSoqQKBgQDEC6j6wVQmIb3pXOBwAxm87DGdoyRfcGMF\nqMOJA6OBuL9kW1oWgzd/hYJk6XUiX0ML2Y/TIZuzY77tVkm0/aB4rYS19fgxp7Fj\nnpGCJnk5S36x01QFvd9CxvXtx7auLoCBxByI7O9OXX8sfGzcakVIxIVn1kJBDTC0\n0rlI1kYMqQKBgQDbLVwYr1ck2N+NOFcpx9QX2OCM89G456nO+5te2lWa2ZsncYpV\nOTftjEnuWj7Ay4wJQ1CUSLrenR/vrZnIhyzsPbx5rQQE6q454YzbvxZrRREzBJiw\nWx8NrhFiaIsJNLPFrZtvAT9gjUFocQZAxr7LzCyR/2KCO7Okv/bVea4GaQKBgE41\nnJ8Uu15O/bV4YO0uv3jX/V82807Dxi0+y2sAsZ0RuADwVLtAc8aC26coX5trx5KV\no8QF11i0hTmnv9XdjMQ37QaubupYTPNCEiiK8reBv7Rva0izG7tHJltK3j0Uvh2G\nwB977mgj8pUruj4ggy1pgRMQrfPHsFOi8Vn2aZGpAoGAdIhX3GlpmYMIgdUIWEWZ\n3QBP49o0cat7hfhGeBsoiHC07rMGPXcfMGYhYWvxsmfclOslBIhc4P4f2ythL8YZ\niqXkihWsxKFZKhI9VO3qp1GH30iYLrPHj1H7viFrMh2nkTE4gFIybiweZDSLKdMt\nfgDLu4y1kYR5ShzKwdr9JNI=\n-----END PRIVATE KEY-----\n",
  "client_email": "googlesheet@august-cascade-301522.iam.gserviceaccount.com",
  "client_id": "105121061032151862872",
  "auth_uri": "https://accounts.google.com/o/oauth2/auth",
  "token_uri": "https://oauth2.googleapis.com/token",
  "auth_provider_x509_cert_url": "https://www.googleapis.com/oauth2/v1/certs",
  "client_x509_cert_url": "https://www.googleapis.com/robot/v1/metadata/x509/googlesheet%40august-cascade-301522.iam.gserviceaccount.com"
}
